<?xml version="1.0" encoding="UTF-8"?>
<OAI-PMH xmlns="http://www.openarchives.org/OAI/2.0/" xmlns:xsi="http://www.w3.org/2001/XMLSchema-instance" xsi:schemaLocation="http://www.openarchives.org/OAI/2.0/ http://www.openarchives.org/OAI/2.0/OAI-PMH.xsd"><responseDate>2023-02-21T12:52:02Z</responseDate><request verb="ListIdentifiers" metadataPrefix="oai_dc" set="col-681">https://digi.kansalliskirjasto.fi/interfaces/OAI-PMH</request><ListIdentifiers><header><identifier>oai:digi.kansalliskirjasto.fi:379973</identifier><datestamp>2007-10-29T22:00:00Z</datestamp><setSpec>col-82</setSpec><setSpec>col-82:col-401</setSpec><setSpec>col-82:col-661</setSpec><setSpec>col-82:col-681</setSpec><setSpec>sanomalehti</setSpec></header><header><identifier>oai:digi.kansalliskirjasto.fi:379974</identifier><datestamp>2007-10-29T22:00:00Z</datestamp><setSpec>col-82</setSpec><setSpec>col-82:col-401</setSpec><setSpec>col-82:col-661</setSpec><setSpec>col-82:col-681</setSpec><setSpec>sanomalehti</setSpec></header><header><identifier>oai:digi.kansalliskirjasto.fi:379975</identifier><datestamp>2007-10-29T22:00:00Z</datestamp><setSpec>col-82</setSpec><setSpec>col-82:col-401</setSpec><setSpec>col-82:col-661</setSpec><setSpec>col-82:col-681</setSpec><setSpec>sanomalehti</setSpec></header><header><identifier>oai:digi.kansalliskirjasto.fi:379976</identifier><datestamp>2007-10-29T22:00:00Z</datestamp><setSpec>col-82</setSpec><setSpec>col-82:col-401</setSpec><setSpec>col-82:col-661</setSpec><setSpec>col-82:col-681</setSpec><setSpec>sanomalehti</setSpec></header><header><identifier>oai:digi.kansalliskirjasto.fi:379977</identifier><datestamp>2007-10-29T22:00:00Z</datestamp><setSpec>col-82</setSpec><setSpec>col-82:col-401</setSpec><setSpec>col-82:col-661</setSpec><setSpec>col-82:col-681</setSpec><setSpec>sanomalehti</setSpec></header><header><identifier>oai:digi.kansalliskirjasto.fi:379978</identifier><datestamp>2007-10-29T22:00:00Z</datestamp><setSpec>col-82</setSpec><setSpec>col-82:col-401</setSpec><setSpec>col-82:col-661</setSpec><setSpec>col-82:col-681</setSpec><setSpec>sanomalehti</setSpec></header><header><identifier>oai:digi.kansalliskirjasto.fi:379979</identifier><datestamp>2007-10-29T22:00:00Z</datestamp><setSpec>col-82</setSpec><setSpec>col-82:col-401</setSpec><setSpec>col-82:col-661</setSpec><setSpec>col-82:col-681</setSpec><setSpec>sanomalehti</setSpec></header><header><identifier>oai:digi.kansalliskirjasto.fi:379980</identifier><datestamp>2007-10-29T22:00:00Z</datestamp><setSpec>col-82</setSpec><setSpec>col-82:col-401</setSpec><setSpec>col-82:col-661</setSpec><setSpec>col-82:col-681</setSpec><setSpec>sanomalehti</setSpec></header><header><identifier>oai:digi.kansalliskirjasto.fi:379981</identifier><datestamp>2007-10-29T22:00:00Z</datestamp><setSpec>col-82</setSpec><setSpec>col-82:col-401</setSpec><setSpec>col-82:col-661</setSpec><setSpec>col-82:col-681</setSpec><setSpec>sanomalehti</setSpec></header><header><identifier>oai:digi.kansalliskirjasto.fi:379982</identifier><datestamp>2007-10-29T22:00:00Z</datestamp><setSpec>col-82</setSpec><setSpec>col-82:col-401</setSpec><setSpec>col-82:col-661</setSpec><setSpec>col-82:col-681</setSpec><setSpec>sanomalehti</setSpec></header><header><identifier>oai:digi.kansalliskirjasto.fi:379983</identifier><datestamp>2007-10-29T22:00:00Z</datestamp><setSpec>col-82</setSpec><setSpec>col-82:col-401</setSpec><setSpec>col-82:col-661</setSpec><setSpec>col-82:col-681</setSpec><setSpec>sanomalehti</setSpec></header><header><identifier>oai:digi.kansalliskirjasto.fi:379984</identifier><datestamp>2007-10-29T22:00:00Z</datestamp><setSpec>col-82</setSpec><setSpec>col-82:col-401</setSpec><setSpec>col-82:col-661</setSpec><setSpec>col-82:col-681</setSpec><setSpec>sanomalehti</setSpec></header><header><identifier>oai:digi.kansalliskirjasto.fi:379985</identifier><datestamp>2007-10-29T22:00:00Z</datestamp><setSpec>col-82</setSpec><setSpec>col-82:col-401</setSpec><setSpec>col-82:col-661</setSpec><setSpec>col-82:col-681</setSpec><setSpec>sanomalehti</setSpec></header><header><identifier>oai:digi.kansalliskirjasto.fi:379986</identifier><datestamp>2007-10-29T22:00:00Z</datestamp><setSpec>col-82</setSpec><setSpec>col-82:col-401</setSpec><setSpec>col-82:col-661</setSpec><setSpec>col-82:col-681</setSpec><setSpec>sanomalehti</setSpec></header><header><identifier>oai:digi.kansalliskirjasto.fi:379987</identifier><datestamp>2007-10-29T22:00:00Z</datestamp><setSpec>col-82</setSpec><setSpec>col-82:col-401</setSpec><setSpec>col-82:col-661</setSpec><setSpec>col-82:col-681</setSpec><setSpec>sanomalehti</setSpec></header><header><identifier>oai:digi.kansalliskirjasto.fi:379988</identifier><datestamp>2007-10-29T22:00:00Z</datestamp><setSpec>col-82</setSpec><setSpec>col-82:col-401</setSpec><setSpec>col-82:col-661</setSpec><setSpec>col-82:col-681</setSpec><setSpec>sanomalehti</setSpec></header><header><identifier>oai:digi.kansalliskirjasto.fi:379989</identifier><datestamp>2007-10-29T22:00:00Z</datestamp><setSpec>col-82</setSpec><setSpec>col-82:col-401</setSpec><setSpec>col-82:col-661</setSpec><setSpec>col-82:col-681</setSpec><setSpec>sanomalehti</setSpec></header><header><identifier>oai:digi.kansalliskirjasto.fi:379990</identifier><datestamp>2007-10-29T22:00:00Z</datestamp><setSpec>col-82</setSpec><setSpec>col-82:col-401</setSpec><setSpec>col-82:col-661</setSpec><setSpec>col-82:col-681</setSpec><setSpec>sanomalehti</setSpec></header><header><identifier>oai:digi.kansalliskirjasto.fi:379991</identifier><datestamp>2007-10-29T22:00:00Z</datestamp><setSpec>col-82</setSpec><setSpec>col-82:col-401</setSpec><setSpec>col-82:col-661</setSpec><setSpec>col-82:col-681</setSpec><setSpec>sanomalehti</setSpec></header><header><identifier>oai:digi.kansalliskirjasto.fi:379992</identifier><datestamp>2007-10-29T22:00:00Z</datestamp><setSpec>col-82</setSpec><setSpec>col-82:col-401</setSpec><setSpec>col-82:col-661</setSpec><setSpec>col-82:col-681</setSpec><setSpec>sanomalehti</setSpec></header><header><identifier>oai:digi.kansalliskirjasto.fi:379993</identifier><datestamp>2007-10-29T22:00:00Z</datestamp><setSpec>col-82</setSpec><setSpec>col-82:col-401</setSpec><setSpec>col-82:col-661</setSpec><setSpec>col-82:col-681</setSpec><setSpec>sanomalehti</setSpec></header><header><identifier>oai:digi.kansalliskirjasto.fi:379994</identifier><datestamp>2007-10-29T22:00:00Z</datestamp><setSpec>col-82</setSpec><setSpec>col-82:col-401</setSpec><setSpec>col-82:col-661</setSpec><setSpec>col-82:col-681</setSpec><setSpec>sanomalehti</setSpec></header><header><identifier>oai:digi.kansalliskirjasto.fi:379995</identifier><datestamp>2007-10-29T22:00:00Z</datestamp><setSpec>col-82</setSpec><setSpec>col-82:col-401</setSpec><setSpec>col-82:col-661</setSpec><setSpec>col-82:col-681</setSpec><setSpec>sanomalehti</setSpec></header><header><identifier>oai:digi.kansalliskirjasto.fi:379996</identifier><datestamp>2007-10-29T22:00:00Z</datestamp><setSpec>col-82</setSpec><setSpec>col-82:col-401</setSpec><setSpec>col-82:col-661</setSpec><setSpec>col-82:col-681</setSpec><setSpec>sanomalehti</setSpec></header><header><identifier>oai:digi.kansalliskirjasto.fi:379997</identifier><datestamp>2007-10-29T22:00:00Z</datestamp><setSpec>col-82</setSpec><setSpec>col-82:col-401</setSpec><setSpec>col-82:col-661</setSpec><setSpec>col-82:col-681</setSpec><setSpec>sanomalehti</setSpec></header><header><identifier>oai:digi.kansalliskirjasto.fi:379998</identifier><datestamp>2007-10-29T22:00:00Z</datestamp><setSpec>col-82</setSpec><setSpec>col-82:col-401</setSpec><setSpec>col-82:col-661</setSpec><setSpec>col-82:col-681</setSpec><setSpec>sanomalehti</setSpec></header><header><identifier>oai:digi.kansalliskirjasto.fi:379999</identifier><datestamp>2007-10-29T22:00:00Z</datestamp><setSpec>col-82</setSpec><setSpec>col-82:col-401</setSpec><setSpec>col-82:col-661</setSpec><setSpec>col-82:col-681</setSpec><setSpec>sanomalehti</setSpec></header><header><identifier>oai:digi.kansalliskirjasto.fi:380000</identifier><datestamp>2007-10-29T22:00:00Z</datestamp><setSpec>col-82</setSpec><setSpec>col-82:col-401</setSpec><setSpec>col-82:col-661</setSpec><setSpec>col-82:col-681</setSpec><setSpec>sanomalehti</setSpec></header><header><identifier>oai:digi.kansalliskirjasto.fi:380001</identifier><datestamp>2007-10-29T22:00:00Z</datestamp><setSpec>col-82</setSpec><setSpec>col-82:col-401</setSpec><setSpec>col-82:col-661</setSpec><setSpec>col-82:col-681</setSpec><setSpec>sanomalehti</setSpec></header><header><identifier>oai:digi.kansalliskirjasto.fi:380002</identifier><datestamp>2007-10-29T22:00:00Z</datestamp><setSpec>col-82</setSpec><setSpec>col-82:col-401</setSpec><setSpec>col-82:col-661</setSpec><setSpec>col-82:col-681</setSpec><setSpec>sanomalehti</setSpec></header><header><identifier>oai:digi.kansalliskirjasto.fi:380003</identifier><datestamp>2007-10-29T22:00:00Z</datestamp><setSpec>col-82</setSpec><setSpec>col-82:col-401</setSpec><setSpec>col-82:col-661</setSpec><setSpec>col-82:col-681</setSpec><setSpec>sanomalehti</setSpec></header><header><identifier>oai:digi.kansalliskirjasto.fi:380004</identifier><datestamp>2007-10-29T22:00:00Z</datestamp><setSpec>col-82</setSpec><setSpec>col-82:col-401</setSpec><setSpec>col-82:col-661</setSpec><setSpec>col-82:col-681</setSpec><setSpec>sanomalehti</setSpec></header><header><identifier>oai:digi.kansalliskirjasto.fi:380005</identifier><datestamp>2007-10-29T22:00:00Z</datestamp><setSpec>col-82</setSpec><setSpec>col-82:col-401</setSpec><setSpec>col-82:col-661</setSpec><setSpec>col-82:col-681</setSpec><setSpec>sanomalehti</setSpec></header><header><identifier>oai:digi.kansalliskirjasto.fi:380006</identifier><datestamp>2007-10-29T22:00:00Z</datestamp><setSpec>col-82</setSpec><setSpec>col-82:col-401</setSpec><setSpec>col-82:col-661</setSpec><setSpec>col-82:col-681</setSpec><setSpec>sanomalehti</setSpec></header><header><identifier>oai:digi.kansalliskirjasto.fi:380007</identifier><datestamp>2007-10-29T22:00:00Z</datestamp><setSpec>col-82</setSpec><setSpec>col-82:col-401</setSpec><setSpec>col-82:col-661</setSpec><setSpec>col-82:col-681</setSpec><setSpec>sanomalehti</setSpec></header><header><identifier>oai:digi.kansalliskirjasto.fi:380008</identifier><datestamp>2007-10-29T22:00:00Z</datestamp><setSpec>col-82</setSpec><setSpec>col-82:col-401</setSpec><setSpec>col-82:col-661</setSpec><setSpec>col-82:col-681</setSpec><setSpec>sanomalehti</setSpec></header><header><identifier>oai:digi.kansalliskirjasto.fi:380009</identifier><datestamp>2007-10-29T22:00:00Z</datestamp><setSpec>col-82</setSpec><setSpec>col-82:col-401</setSpec><setSpec>col-82:col-661</setSpec><setSpec>col-82:col-681</setSpec><setSpec>sanomalehti</setSpec></header><header><identifier>oai:digi.kansalliskirjasto.fi:380010</identifier><datestamp>2007-10-29T22:00:00Z</datestamp><setSpec>col-82</setSpec><setSpec>col-82:col-401</setSpec><setSpec>col-82:col-661</setSpec><setSpec>col-82:col-681</setSpec><setSpec>sanomalehti</setSpec></header><header><identifier>oai:digi.kansalliskirjasto.fi:380011</identifier><datestamp>2007-10-29T22:00:00Z</datestamp><setSpec>col-82</setSpec><setSpec>col-82:col-401</setSpec><setSpec>col-82:col-661</setSpec><setSpec>col-82:col-681</setSpec><setSpec>sanomalehti</setSpec></header><header><identifier>oai:digi.kansalliskirjasto.fi:380012</identifier><datestamp>2007-10-29T22:00:00Z</datestamp><setSpec>col-82</setSpec><setSpec>col-82:col-401</setSpec><setSpec>col-82:col-661</setSpec><setSpec>col-82:col-681</setSpec><setSpec>sanomalehti</setSpec></header><header><identifier>oai:digi.kansalliskirjasto.fi:380013</identifier><datestamp>2007-10-29T22:00:00Z</datestamp><setSpec>col-82</setSpec><setSpec>col-82:col-401</setSpec><setSpec>col-82:col-661</setSpec><setSpec>col-82:col-681</setSpec><setSpec>sanomalehti</setSpec></header><header><identifier>oai:digi.kansalliskirjasto.fi:380014</identifier><datestamp>2007-10-29T22:00:00Z</datestamp><setSpec>col-82</setSpec><setSpec>col-82:col-401</setSpec><setSpec>col-82:col-661</setSpec><setSpec>col-82:col-681</setSpec><setSpec>sanomalehti</setSpec></header><header><identifier>oai:digi.kansalliskirjasto.fi:380015</identifier><datestamp>2007-10-29T22:00:00Z</datestamp><setSpec>col-82</setSpec><setSpec>col-82:col-401</setSpec><setSpec>col-82:col-661</setSpec><setSpec>col-82:col-681</setSpec><setSpec>sanomalehti</setSpec></header><header><identifier>oai:digi.kansalliskirjasto.fi:380016</identifier><datestamp>2007-10-29T22:00:00Z</datestamp><setSpec>col-82</setSpec><setSpec>col-82:col-401</setSpec><setSpec>col-82:col-661</setSpec><setSpec>col-82:col-681</setSpec><setSpec>sanomalehti</setSpec></header><header><identifier>oai:digi.kansalliskirjasto.fi:380017</identifier><datestamp>2007-10-29T22:00:00Z</datestamp><setSpec>col-82</setSpec><setSpec>col-82:col-401</setSpec><setSpec>col-82:col-661</setSpec><setSpec>col-82:col-681</setSpec><setSpec>sanomalehti</setSpec></header><header><identifier>oai:digi.kansalliskirjasto.fi:380018</identifier><datestamp>2007-10-29T22:00:00Z</datestamp><setSpec>col-82</setSpec><setSpec>col-82:col-401</setSpec><setSpec>col-82:col-661</setSpec><setSpec>col-82:col-681</setSpec><setSpec>sanomalehti</setSpec></header><header><identifier>oai:digi.kansalliskirjasto.fi:380019</identifier><datestamp>2007-10-29T22:00:00Z</datestamp><setSpec>col-82</setSpec><setSpec>col-82:col-401</setSpec><setSpec>col-82:col-661</setSpec><setSpec>col-82:col-681</setSpec><setSpec>sanomalehti</setSpec></header><header><identifier>oai:digi.kansalliskirjasto.fi:380020</identifier><datestamp>2007-10-29T22:00:00Z</datestamp><setSpec>col-82</setSpec><setSpec>col-82:col-401</setSpec><setSpec>col-82:col-661</setSpec><setSpec>col-82:col-681</setSpec><setSpec>sanomalehti</setSpec></header><header><identifier>oai:digi.kansalliskirjasto.fi:380021</identifier><datestamp>2007-10-29T22:00:00Z</datestamp><setSpec>col-82</setSpec><setSpec>col-82:col-401</setSpec><setSpec>col-82:col-661</setSpec><setSpec>col-82:col-681</setSpec><setSpec>sanomalehti</setSpec></header><header><identifier>oai:digi.kansalliskirjasto.fi:380022</identifier><datestamp>2007-10-29T22:00:00Z</datestamp><setSpec>col-82</setSpec><setSpec>col-82:col-401</setSpec><setSpec>col-82:col-661</setSpec><setSpec>col-82:col-681</setSpec><setSpec>sanomalehti</setSpec></header><header><identifier>oai:digi.kansalliskirjasto.fi:380023</identifier><datestamp>2007-10-29T22:00:00Z</datestamp><setSpec>col-82</setSpec><setSpec>col-82:col-401</setSpec><setSpec>col-82:col-661</setSpec><setSpec>col-82:col-681</setSpec><setSpec>sanomalehti</setSpec></header><header><identifier>oai:digi.kansalliskirjasto.fi:380024</identifier><datestamp>2007-10-29T22:00:00Z</datestamp><setSpec>col-82</setSpec><setSpec>col-82:col-401</setSpec><setSpec>col-82:col-661</setSpec><setSpec>col-82:col-681</setSpec><setSpec>sanomalehti</setSpec></header><header><identifier>oai:digi.kansalliskirjasto.fi:380025</identifier><datestamp>2007-10-29T22:00:00Z</datestamp><setSpec>col-82</setSpec><setSpec>col-82:col-401</setSpec><setSpec>col-82:col-661</setSpec><setSpec>col-82:col-681</setSpec><setSpec>sanomalehti</setSpec></header><header><identifier>oai:digi.kansalliskirjasto.fi:380026</identifier><datestamp>2007-10-29T22:00:00Z</datestamp><setSpec>col-82</setSpec><setSpec>col-82:col-401</setSpec><setSpec>col-82:col-661</setSpec><setSpec>col-82:col-681</setSpec><setSpec>sanomalehti</setSpec></header><header><identifier>oai:digi.kansalliskirjasto.fi:380027</identifier><datestamp>2007-10-29T22:00:00Z</datestamp><setSpec>col-82</setSpec><setSpec>col-82:col-401</setSpec><setSpec>col-82:col-661</setSpec><setSpec>col-82:col-681</setSpec><setSpec>sanomalehti</setSpec></header><header><identifier>oai:digi.kansalliskirjasto.fi:380028</identifier><datestamp>2007-10-29T22:00:00Z</datestamp><setSpec>col-82</setSpec><setSpec>col-82:col-401</setSpec><setSpec>col-82:col-661</setSpec><setSpec>col-82:col-681</setSpec><setSpec>sanomalehti</setSpec></header><header><identifier>oai:digi.kansalliskirjasto.fi:380029</identifier><datestamp>2007-10-29T22:00:00Z</datestamp><setSpec>col-82</setSpec><setSpec>col-82:col-401</setSpec><setSpec>col-82:col-661</setSpec><setSpec>col-82:col-681</setSpec><setSpec>sanomalehti</setSpec></header><header><identifier>oai:digi.kansalliskirjasto.fi:380030</identifier><datestamp>2007-10-29T22:00:00Z</datestamp><setSpec>col-82</setSpec><setSpec>col-82:col-401</setSpec><setSpec>col-82:col-661</setSpec><setSpec>col-82:col-681</setSpec><setSpec>sanomalehti</setSpec></header><header><identifier>oai:digi.kansalliskirjasto.fi:380031</identifier><datestamp>2007-10-29T22:00:00Z</datestamp><setSpec>col-82</setSpec><setSpec>col-82:col-401</setSpec><setSpec>col-82:col-661</setSpec><setSpec>col-82:col-681</setSpec><setSpec>sanomalehti</setSpec></header><header><identifier>oai:digi.kansalliskirjasto.fi:380032</identifier><datestamp>2007-10-29T22:00:00Z</datestamp><setSpec>col-82</setSpec><setSpec>col-82:col-401</setSpec><setSpec>col-82:col-661</setSpec><setSpec>col-82:col-681</setSpec><setSpec>sanomalehti</setSpec></header><header><identifier>oai:digi.kansalliskirjasto.fi:380033</identifier><datestamp>2007-10-29T22:00:00Z</datestamp><setSpec>col-82</setSpec><setSpec>col-82:col-401</setSpec><setSpec>col-82:col-661</setSpec><setSpec>col-82:col-681</setSpec><setSpec>sanomalehti</setSpec></header><header><identifier>oai:digi.kansalliskirjasto.fi:380034</identifier><datestamp>2007-10-29T22:00:00Z</datestamp><setSpec>col-82</setSpec><setSpec>col-82:col-401</setSpec><setSpec>col-82:col-661</setSpec><setSpec>col-82:col-681</setSpec><setSpec>sanomalehti</setSpec></header><header><identifier>oai:digi.kansalliskirjasto.fi:380035</identifier><datestamp>2007-10-29T22:00:00Z</datestamp><setSpec>col-82</setSpec><setSpec>col-82:col-401</setSpec><setSpec>col-82:col-661</setSpec><setSpec>col-82:col-681</setSpec><setSpec>sanomalehti</setSpec></header><header><identifier>oai:digi.kansalliskirjasto.fi:380036</identifier><datestamp>2007-10-29T22:00:00Z</datestamp><setSpec>col-82</setSpec><setSpec>col-82:col-401</setSpec><setSpec>col-82:col-661</setSpec><setSpec>col-82:col-681</setSpec><setSpec>sanomalehti</setSpec></header><header><identifier>oai:digi.kansalliskirjasto.fi:380037</identifier><datestamp>2007-10-29T22:00:00Z</datestamp><setSpec>col-82</setSpec><setSpec>col-82:col-401</setSpec><setSpec>col-82:col-661</setSpec><setSpec>col-82:col-681</setSpec><setSpec>sanomalehti</setSpec></header><header><identifier>oai:digi.kansalliskirjasto.fi:380038</identifier><datestamp>2007-10-29T22:00:00Z</datestamp><setSpec>col-82</setSpec><setSpec>col-82:col-401</setSpec><setSpec>col-82:col-661</setSpec><setSpec>col-82:col-681</setSpec><setSpec>sanomalehti</setSpec></header><header><identifier>oai:digi.kansalliskirjasto.fi:380039</identifier><datestamp>2007-10-29T22:00:00Z</datestamp><setSpec>col-82</setSpec><setSpec>col-82:col-401</setSpec><setSpec>col-82:col-661</setSpec><setSpec>col-82:col-681</setSpec><setSpec>sanomalehti</setSpec></header><header><identifier>oai:digi.kansalliskirjasto.fi:380040</identifier><datestamp>2007-10-29T22:00:00Z</datestamp><setSpec>col-82</setSpec><setSpec>col-82:col-401</setSpec><setSpec>col-82:col-661</setSpec><setSpec>col-82:col-681</setSpec><setSpec>sanomalehti</setSpec></header><header><identifier>oai:digi.kansalliskirjasto.fi:380041</identifier><datestamp>2007-10-29T22:00:00Z</datestamp><setSpec>col-82</setSpec><setSpec>col-82:col-401</setSpec><setSpec>col-82:col-661</setSpec><setSpec>col-82:col-681</setSpec><setSpec>sanomalehti</setSpec></header><header><identifier>oai:digi.kansalliskirjasto.fi:380042</identifier><datestamp>2007-10-29T22:00:00Z</datestamp><setSpec>col-82</setSpec><setSpec>col-82:col-401</setSpec><setSpec>col-82:col-661</setSpec><setSpec>col-82:col-681</setSpec><setSpec>sanomalehti</setSpec></header><header><identifier>oai:digi.kansalliskirjasto.fi:380043</identifier><datestamp>2007-10-29T22:00:00Z</datestamp><setSpec>col-82</setSpec><setSpec>col-82:col-401</setSpec><setSpec>col-82:col-661</setSpec><setSpec>col-82:col-681</setSpec><setSpec>sanomalehti</setSpec></header><header><identifier>oai:digi.kansalliskirjasto.fi:380044</identifier><datestamp>2007-10-29T22:00:00Z</datestamp><setSpec>col-82</setSpec><setSpec>col-82:col-401</setSpec><setSpec>col-82:col-661</setSpec><setSpec>col-82:col-681</setSpec><setSpec>sanomalehti</setSpec></header><header><identifier>oai:digi.kansalliskirjasto.fi:380045</identifier><datestamp>2007-10-29T22:00:00Z</datestamp><setSpec>col-82</setSpec><setSpec>col-82:col-401</setSpec><setSpec>col-82:col-661</setSpec><setSpec>col-82:col-681</setSpec><setSpec>sanomalehti</setSpec></header><header><identifier>oai:digi.kansalliskirjasto.fi:380046</identifier><datestamp>2007-10-29T22:00:00Z</datestamp><setSpec>col-82</setSpec><setSpec>col-82:col-401</setSpec><setSpec>col-82:col-661</setSpec><setSpec>col-82:col-681</setSpec><setSpec>sanomalehti</setSpec></header><header><identifier>oai:digi.kansalliskirjasto.fi:380047</identifier><datestamp>2007-10-29T22:00:00Z</datestamp><setSpec>col-82</setSpec><setSpec>col-82:col-401</setSpec><setSpec>col-82:col-661</setSpec><setSpec>col-82:col-681</setSpec><setSpec>sanomalehti</setSpec></header><header><identifier>oai:digi.kansalliskirjasto.fi:380048</identifier><datestamp>2007-10-29T22:00:00Z</datestamp><setSpec>col-82</setSpec><setSpec>col-82:col-401</setSpec><setSpec>col-82:col-661</setSpec><setSpec>col-82:col-681</setSpec><setSpec>sanomalehti</setSpec></header><header><identifier>oai:digi.kansalliskirjasto.fi:380049</identifier><datestamp>2007-10-29T22:00:00Z</datestamp><setSpec>col-82</setSpec><setSpec>col-82:col-401</setSpec><setSpec>col-82:col-661</setSpec><setSpec>col-82:col-681</setSpec><setSpec>sanomalehti</setSpec></header><header><identifier>oai:digi.kansalliskirjasto.fi:380050</identifier><datestamp>2007-10-29T22:00:00Z</datestamp><setSpec>col-82</setSpec><setSpec>col-82:col-401</setSpec><setSpec>col-82:col-661</setSpec><setSpec>col-82:col-681</setSpec><setSpec>sanomalehti</setSpec></header><header><identifier>oai:digi.kansalliskirjasto.fi:380051</identifier><datestamp>2007-10-29T22:00:00Z</datestamp><setSpec>col-82</setSpec><setSpec>col-82:col-401</setSpec><setSpec>col-82:col-661</setSpec><setSpec>col-82:col-681</setSpec><setSpec>sanomalehti</setSpec></header><header><identifier>oai:digi.kansalliskirjasto.fi:380052</identifier><datestamp>2007-10-29T22:00:00Z</datestamp><setSpec>col-82</setSpec><setSpec>col-82:col-401</setSpec><setSpec>col-82:col-661</setSpec><setSpec>col-82:col-681</setSpec><setSpec>sanomalehti</setSpec></header><header><identifier>oai:digi.kansalliskirjasto.fi:380053</identifier><datestamp>2007-10-29T22:00:00Z</datestamp><setSpec>col-82</setSpec><setSpec>col-82:col-401</setSpec><setSpec>col-82:col-661</setSpec><setSpec>col-82:col-681</setSpec><setSpec>sanomalehti</setSpec></header><header><identifier>oai:digi.kansalliskirjasto.fi:380054</identifier><datestamp>2007-10-29T22:00:00Z</datestamp><setSpec>col-82</setSpec><setSpec>col-82:col-401</setSpec><setSpec>col-82:col-661</setSpec><setSpec>col-82:col-681</setSpec><setSpec>sanomalehti</setSpec></header><header><identifier>oai:digi.kansalliskirjasto.fi:380055</identifier><datestamp>2007-10-29T22:00:00Z</datestamp><setSpec>col-82</setSpec><setSpec>col-82:col-401</setSpec><setSpec>col-82:col-661</setSpec><setSpec>col-82:col-681</setSpec><setSpec>sanomalehti</setSpec></header><header><identifier>oai:digi.kansalliskirjasto.fi:380056</identifier><datestamp>2007-10-29T22:00:00Z</datestamp><setSpec>col-82</setSpec><setSpec>col-82:col-401</setSpec><setSpec>col-82:col-661</setSpec><setSpec>col-82:col-681</setSpec><setSpec>sanomalehti</setSpec></header><header><identifier>oai:digi.kansalliskirjasto.fi:380057</identifier><datestamp>2007-10-29T22:00:00Z</datestamp><setSpec>col-82</setSpec><setSpec>col-82:col-401</setSpec><setSpec>col-82:col-661</setSpec><setSpec>col-82:col-681</setSpec><setSpec>sanomalehti</setSpec></header><header><identifier>oai:digi.kansalliskirjasto.fi:380058</identifier><datestamp>2007-10-29T22:00:00Z</datestamp><setSpec>col-82</setSpec><setSpec>col-82:col-401</setSpec><setSpec>col-82:col-661</setSpec><setSpec>col-82:col-681</setSpec><setSpec>sanomalehti</setSpec></header><header><identifier>oai:digi.kansalliskirjasto.fi:380059</identifier><datestamp>2007-10-29T22:00:00Z</datestamp><setSpec>col-82</setSpec><setSpec>col-82:col-401</setSpec><setSpec>col-82:col-661</setSpec><setSpec>col-82:col-681</setSpec><setSpec>sanomalehti</setSpec></header><header><identifier>oai:digi.kansalliskirjasto.fi:380060</identifier><datestamp>2007-10-29T22:00:00Z</datestamp><setSpec>col-82</setSpec><setSpec>col-82:col-401</setSpec><setSpec>col-82:col-661</setSpec><setSpec>col-82:col-681</setSpec><setSpec>sanomalehti</setSpec></header><header><identifier>oai:digi.kansalliskirjasto.fi:380061</identifier><datestamp>2007-10-29T22:00:00Z</datestamp><setSpec>col-82</setSpec><setSpec>col-82:col-401</setSpec><setSpec>col-82:col-661</setSpec><setSpec>col-82:col-681</setSpec><setSpec>sanomalehti</setSpec></header><header><identifier>oai:digi.kansalliskirjasto.fi:380062</identifier><datestamp>2007-10-29T22:00:00Z</datestamp><setSpec>col-82</setSpec><setSpec>col-82:col-401</setSpec><setSpec>col-82:col-661</setSpec><setSpec>col-82:col-681</setSpec><setSpec>sanomalehti</setSpec></header><header><identifier>oai:digi.kansalliskirjasto.fi:380063</identifier><datestamp>2007-10-29T22:00:00Z</datestamp><setSpec>col-82</setSpec><setSpec>col-82:col-401</setSpec><setSpec>col-82:col-661</setSpec><setSpec>col-82:col-681</setSpec><setSpec>sanomalehti</setSpec></header><header><identifier>oai:digi.kansalliskirjasto.fi:380064</identifier><datestamp>2007-10-29T22:00:00Z</datestamp><setSpec>col-82</setSpec><setSpec>col-82:col-401</setSpec><setSpec>col-82:col-661</setSpec><setSpec>col-82:col-681</setSpec><setSpec>sanomalehti</setSpec></header><header><identifier>oai:digi.kansalliskirjasto.fi:380065</identifier><datestamp>2007-10-29T22:00:00Z</datestamp><setSpec>col-82</setSpec><setSpec>col-82:col-401</setSpec><setSpec>col-82:col-661</setSpec><setSpec>col-82:col-681</setSpec><setSpec>sanomalehti</setSpec></header><header><identifier>oai:digi.kansalliskirjasto.fi:380066</identifier><datestamp>2007-10-29T22:00:00Z</datestamp><setSpec>col-82</setSpec><setSpec>col-82:col-401</setSpec><setSpec>col-82:col-661</setSpec><setSpec>col-82:col-681</setSpec><setSpec>sanomalehti</setSpec></header><header><identifier>oai:digi.kansalliskirjasto.fi:380067</identifier><datestamp>2007-10-29T22:00:00Z</datestamp><setSpec>col-82</setSpec><setSpec>col-82:col-401</setSpec><setSpec>col-82:col-661</setSpec><setSpec>col-82:col-681</setSpec><setSpec>sanomalehti</setSpec></header><header><identifier>oai:digi.kansalliskirjasto.fi:380068</identifier><datestamp>2007-10-29T22:00:00Z</datestamp><setSpec>col-82</setSpec><setSpec>col-82:col-401</setSpec><setSpec>col-82:col-661</setSpec><setSpec>col-82:col-681</setSpec><setSpec>sanomalehti</setSpec></header><header><identifier>oai:digi.kansalliskirjasto.fi:380069</identifier><datestamp>2007-10-29T22:00:00Z</datestamp><setSpec>col-82</setSpec><setSpec>col-82:col-401</setSpec><setSpec>col-82:col-661</setSpec><setSpec>col-82:col-681</setSpec><setSpec>sanomalehti</setSpec></header><header><identifier>oai:digi.kansalliskirjasto.fi:380070</identifier><datestamp>2007-10-29T22:00:00Z</datestamp><setSpec>col-82</setSpec><setSpec>col-82:col-401</setSpec><setSpec>col-82:col-661</setSpec><setSpec>col-82:col-681</setSpec><setSpec>sanomalehti</setSpec></header><header><identifier>oai:digi.kansalliskirjasto.fi:380071</identifier><datestamp>2007-10-29T22:00:00Z</datestamp><setSpec>col-82</setSpec><setSpec>col-82:col-401</setSpec><setSpec>col-82:col-661</setSpec><setSpec>col-82:col-681</setSpec><setSpec>sanomalehti</setSpec></header><header><identifier>oai:digi.kansalliskirjasto.fi:380072</identifier><datestamp>2007-10-29T22:00:00Z</datestamp><setSpec>col-82</setSpec><setSpec>col-82:col-401</setSpec><setSpec>col-82:col-661</setSpec><setSpec>col-82:col-681</setSpec><setSpec>sanomalehti</setSpec></header><resumptionToken expirationDate="2023-02-21T13:07:02Z" completeListSize="106" cursor="0">FoJQR2GOwV</resumptionToken></ListIdentifiers></OAI-PMH>